Project2
…
    message <- paste0("ERROR: Please pass a date between ", earliest_date, " and ", latest_date, " in the format of YYYYMMDD", ".")
    stop(message)
    
  } else {
    
    query_reports_over_time_data <- reports_over_time_data |>
      filter(year_month_date >= ymd(start_date) & year_month_date <= ymd(end_date))
    return(query_reports_over_time_data)
    
  }
}

query_drug_API_reports_over_time(20071010, 20210101)

# A tibble: 4,764 × 2
   year_month_date count
   <date>          <int>
 1 2007-10-10        737
 2 2007-10-11        838
 3 2007-10-12        906
 4 2007-10-13          2
 5 2007-10-14          1
 6 2007-10-15       1161
 7 2007-10-16        814
 8 2007-10-17        705
 9 2007-10-18       1045
10 2007-10-19        852
# ℹ 4,754 more rows
